<?xml version='1.0' encoding='UTF-8'?>
<!-- This file was generated by dvisvgm 2.13.3 -->
<svg version='1.1' xmlns='http://www.w3.org/2000/svg' xmlns:xlink='http://www.w3.org/1999/xlink' width='327.17pt' height='343.57pt' viewBox='-9.96 -333.61 327.17 343.57'>
<g id='page1' transform='matrix(2.5 0 0 2.5 0 0)'>
<path d='m94.82-10.72c0-1.65-1.34-2.99-2.99-2.99s-2.99 1.34-2.99 2.99s1.34 2.99 2.99 2.99s2.99-1.34 2.99-2.99z'/>
<path d='m94.82-10.72c0-1.65-1.34-2.99-2.99-2.99s-2.99 1.34-2.99 2.99s1.34 2.99 2.99 2.99s2.99-1.34 2.99-2.99z' stroke='#000' fill='none' stroke-width='.4' stroke-miterlimit='10'/>
<path d='m122.7-27.65c0-1.65-1.34-2.99-2.99-2.99s-2.99 1.34-2.99 2.99s1.34 2.99 2.99 2.99s2.99-1.34 2.99-2.99z'/>
<path d='m122.7-27.65c0-1.65-1.34-2.99-2.99-2.99s-2.99 1.34-2.99 2.99s1.34 2.99 2.99 2.99s2.99-1.34 2.99-2.99z' stroke='#000' fill='none' stroke-width='.4' stroke-miterlimit='10'/>
<path d='m105.6-41.23c0-1.65-1.34-2.99-2.99-2.99s-2.99 1.34-2.99 2.99s1.34 2.99 2.99 2.99s2.99-1.34 2.99-2.99z'/>
<path d='m105.6-41.23c0-1.65-1.34-2.99-2.99-2.99s-2.99 1.34-2.99 2.99s1.34 2.99 2.99 2.99s2.99-1.34 2.99-2.99z' stroke='#000' fill='none' stroke-width='.4' stroke-miterlimit='10'/>
<path d='m56.41-41.23c0-1.65-1.34-2.99-2.99-2.99s-2.99 1.34-2.99 2.99s1.34 2.99 2.99 2.99s2.99-1.34 2.99-2.99z'/>
<path d='m56.41-41.23c0-1.65-1.34-2.99-2.99-2.99s-2.99 1.34-2.99 2.99s1.34 2.99 2.99 2.99s2.99-1.34 2.99-2.99z' stroke='#000' fill='none' stroke-width='.4' stroke-miterlimit='10'/>
<path d='m12.16-27.65c0-1.65-1.34-2.99-2.99-2.99s-2.99 1.34-2.99 2.99s1.34 2.99 2.99 2.99s2.99-1.34 2.99-2.99z'/>
<path d='m12.16-27.65c0-1.65-1.34-2.99-2.99-2.99s-2.99 1.34-2.99 2.99s1.34 2.99 2.99 2.99s2.99-1.34 2.99-2.99z' stroke='#000' fill='none' stroke-width='.4' stroke-miterlimit='10'/>
<path d='m6.18-10.72c0-1.65-1.34-2.99-2.99-2.99s-2.99 1.34-2.99 2.99s1.34 2.99 2.99 2.99s2.99-1.34 2.99-2.99z'/>
<path d='m6.18-10.72c0-1.65-1.34-2.99-2.99-2.99s-2.99 1.34-2.99 2.99s1.34 2.99 2.99 2.99s2.99-1.34 2.99-2.99z' stroke='#000' fill='none' stroke-width='.4' stroke-miterlimit='10'/>
<path d='m42.96-3.19c0-1.65-1.34-2.99-2.99-2.99s-2.99 1.34-2.99 2.99s1.34 2.99 2.99 2.99s2.99-1.34 2.99-2.99z'/>
<path d='m42.96-3.19c0-1.65-1.34-2.99-2.99-2.99s-2.99 1.34-2.99 2.99s1.34 2.99 2.99 2.99s2.99-1.34 2.99-2.99z' stroke='#000' fill='none' stroke-width='.4' stroke-miterlimit='10'/>
<path d='m94.82-95.77c0-1.65-1.34-2.99-2.99-2.99s-2.99 1.34-2.99 2.99s1.34 2.99 2.99 2.99s2.99-1.34 2.99-2.99z'/>
<path d='m94.82-95.77c0-1.65-1.34-2.99-2.99-2.99s-2.99 1.34-2.99 2.99s1.34 2.99 2.99 2.99s2.99-1.34 2.99-2.99z' stroke='#000' fill='none' stroke-width='.4' stroke-miterlimit='10'/>
<path d='m122.7-112.69c0-1.65-1.34-2.99-2.99-2.99s-2.99 1.34-2.99 2.99s1.34 2.99 2.99 2.99s2.99-1.34 2.99-2.99z'/>
<path d='m122.7-112.69c0-1.65-1.34-2.99-2.99-2.99s-2.99 1.34-2.99 2.99s1.34 2.99 2.99 2.99s2.99-1.34 2.99-2.99z' stroke='#000' fill='none' stroke-width='.4' stroke-miterlimit='10'/>
<path d='m105.6-126.27c0-1.65-1.34-2.99-2.99-2.99s-2.99 1.34-2.99 2.99s1.34 2.99 2.99 2.99s2.99-1.34 2.99-2.99z'/>
<path d='m105.6-126.27c0-1.65-1.34-2.99-2.99-2.99s-2.99 1.34-2.99 2.99s1.34 2.99 2.99 2.99s2.99-1.34 2.99-2.99z' stroke='#000' fill='none' stroke-width='.4' stroke-miterlimit='10'/>
<path d='m56.41-126.27c0-1.65-1.34-2.99-2.99-2.99s-2.99 1.34-2.99 2.99s1.34 2.99 2.99 2.99s2.99-1.34 2.99-2.99z'/>
<path d='m56.41-126.27c0-1.65-1.34-2.99-2.99-2.99s-2.99 1.34-2.99 2.99s1.34 2.99 2.99 2.99s2.99-1.34 2.99-2.99z' stroke='#000' fill='none' stroke-width='.4' stroke-miterlimit='10'/>
<path d='m12.16-112.69c0-1.65-1.34-2.99-2.99-2.99s-2.99 1.34-2.99 2.99s1.34 2.99 2.99 2.99s2.99-1.34 2.99-2.99z'/>
<path d='m12.16-112.69c0-1.65-1.34-2.99-2.99-2.99s-2.99 1.34-2.99 2.99s1.34 2.99 2.99 2.99s2.99-1.34 2.99-2.99z' stroke='#000' fill='none' stroke-width='.4' stroke-miterlimit='10'/>
<path d='m6.18-95.76c0-1.65-1.34-2.99-2.99-2.99s-2.99 1.34-2.99 2.99s1.34 2.99 2.99 2.99s2.99-1.34 2.99-2.99z'/>
<path d='m6.18-95.76c0-1.65-1.34-2.99-2.99-2.99s-2.99 1.34-2.99 2.99s1.34 2.99 2.99 2.99s2.99-1.34 2.99-2.99z' stroke='#000' fill='none' stroke-width='.4' stroke-miterlimit='10'/>
<path d='m42.96-88.23c0-1.65-1.34-2.99-2.99-2.99s-2.99 1.34-2.99 2.99s1.34 2.99 2.99 2.99s2.99-1.34 2.99-2.99z'/>
<path d='m42.96-88.23c0-1.65-1.34-2.99-2.99-2.99s-2.99 1.34-2.99 2.99s1.34 2.99 2.99 2.99s2.99-1.34 2.99-2.99z' stroke='#000' fill='none' stroke-width='.4' stroke-miterlimit='10'/>
<path d='m91.83-10.72l27.88-16.93l-17.1-13.58h-49.2l-44.25 13.58l-5.98 16.93l36.79 7.54z' stroke='#000' fill='none' stroke-width='.4' stroke-miterlimit='10' stroke-dasharray='2.99 2.99'/>
<path d='m91.83-95.77l27.88-16.93l-17.1-13.58h-49.2l-44.25 13.58l-5.98 16.93l36.79 7.54z' stroke='#000' fill='none' stroke-width='.4' stroke-miterlimit='10' stroke-dasharray='2.99 2.99'/>
<path d='m91.83-10.72v-85.04' stroke='#000' fill='none' stroke-width='.4' stroke-miterlimit='10' stroke-dasharray='2.99 2.99'/>
<path d='m119.71-27.65v-85.04' stroke='#000' fill='none' stroke-width='.4' stroke-miterlimit='10' stroke-dasharray='2.99 2.99'/>
<path d='m102.61-41.23v-85.04' stroke='#000' fill='none' stroke-width='.4' stroke-miterlimit='10' stroke-dasharray='2.99 2.99'/>
<path d='m53.42-41.23v-85.04' stroke='#000' fill='none' stroke-width='.4' stroke-miterlimit='10' stroke-dasharray='2.99 2.99'/>
<path d='m9.17-27.65v-85.04' stroke='#000' fill='none' stroke-width='.4' stroke-miterlimit='10' stroke-dasharray='2.99 2.99'/>
<path d='m3.19-10.72v-85.04' stroke='#000' fill='none' stroke-width='.4' stroke-miterlimit='10' stroke-dasharray='2.99 2.99'/>
<path d='m39.97-3.19v-85.04' stroke='#000' fill='none' stroke-width='.4' stroke-miterlimit='10' stroke-dasharray='2.99 2.99'/>
</g>
</svg>